%YAML 1.1
%TAG !u! tag:unity3d.com,2011:
--- !u!74 &7400000
AnimationClip:
  m_ObjectHideFlags: 0
  m_CorrespondingSourceObject: {fileID: 0}
  m_PrefabInstance: {fileID: 0}
  m_PrefabAsset: {fileID: 0}
  m_Name: Jump_Pj
  serializedVersion: 6
  m_Legacy: 0
  m_Compressed: 0
  m_UseHighQualityCurve: 1
  m_RotationCurves: []
  m_CompressedRotationCurves: []
  m_EulerCurves: []
  m_PositionCurves: []
  m_ScaleCurves: []
  m_FloatCurves: []
  m_PPtrCurves:
  - curve:
    - time: 0
      value: {fileID: 21300000, guid: d0cc28e19519cc94da9c8698abe46958, type: 3}
    - time: 0.083333336
      value: {fileID: 21300000, guid: efce60921cf49c04c8b1d7ccb32f75da, type: 3}
    - time: 0.16666667
      value: {fileID: 21300000, guid: 25275d20025240c40bf4e9c3bf1dccf3, type: 3}
    - time: 0.25
      value: {fileID: 21300000, guid: abe4a03ae5d9be14c812ab39230c107e, type: 3}
    - time: 0.33333334
      value: {fileID: 21300000, guid: 2a2fa29a6e9ff6c4899624236627ebfd, type: 3}
    - time: 0.41666666
      value: {fileID: 21300000, guid: a3e37220699b8be4f9df9acb4c7d9f03, type: 3}
    - time: 0.5
      value: {fileID: 21300000, guid: 518e9874c5fb40948a59fd236faf2108, type: 3}
    - time: 0.5833333
      value: {fileID: 21300000, guid: ec74d4ed8cc04a045953a3f0730b0af2, type: 3}
    - time: 0.6666667
      value: {fileID: 21300000, guid: cfcc604ef3c9ad54ebcda2847a25a444, type: 3}
    - time: 0.75
      value: {fileID: 21300000, guid: 18cbc23eb10df7c479470f86d2b0673e, type: 3}
    attribute: m_Sprite
    path: 
    classID: 212
    script: {fileID: 0}
  m_SampleRate: 12
  m_WrapMode: 0
  m_Bounds:
    m_Center: {x: 0, y: 0, z: 0}
    m_Extent: {x: 0, y: 0, z: 0}
  m_ClipBindingConstant:
    genericBindings:
    - serializedVersion: 2
      path: 0
      attribute: 0
      script: {fileID: 0}
      typeID: 212
      customType: 23
      isPPtrCurve: 1
    pptrCurveMapping:
    - {fileID: 21300000, guid: d0cc28e19519cc94da9c8698abe46958, type: 3}
    - {fileID: 21300000, guid: efce60921cf49c04c8b1d7ccb32f75da, type: 3}
    - {fileID: 21300000, guid: 25275d20025240c40bf4e9c3bf1dccf3, type: 3}
    - {fileID: 21300000, guid: abe4a03ae5d9be14c812ab39230c107e, type: 3}
    - {fileID: 21300000, guid: 2a2fa29a6e9ff6c4899624236627ebfd, type: 3}
    - {fileID: 21300000, guid: a3e37220699b8be4f9df9acb4c7d9f03, type: 3}
    - {fileID: 21300000, guid: 518e9874c5fb40948a59fd236faf2108, type: 3}
    - {fileID: 21300000, guid: ec74d4ed8cc04a045953a3f0730b0af2, type: 3}
    - {fileID: 21300000, guid: cfcc604ef3c9ad54ebcda2847a25a444, type: 3}
    - {fileID: 21300000, guid: 18cbc23eb10df7c479470f86d2b0673e, type: 3}
  m_AnimationClipSettings:
    serializedVersion: 2
    m_AdditiveReferencePoseClip: {fileID: 0}
    m_AdditiveReferencePoseTime: 0
    m_StartTime: 0
    m_StopTime: 0.8333333
    m_OrientationOffsetY: 0
    m_Level: 0
    m_CycleOffset: 0
    m_HasAdditiveReferencePose: 0
    m_LoopTime: 1
    m_LoopBlend: 0
    m_LoopBlendOrientation: 0
    m_LoopBlendPositionY: 0
    m_LoopBlendPositionXZ: 0
    m_KeepOriginalOrientation: 0
    m_KeepOriginalPositionY: 1
    m_KeepOriginalPositionXZ: 0
    m_HeightFromFeet: 0
    m_Mirror: 0
  m_EditorCurves: []
  m_EulerEditorCurves: []
  m_HasGenericRootTransform: 0
  m_HasMotionFloatCurves: 0
  m_Events: []
